module dev.sum7.eu/genofire/micro-cooloud

go 1.18

require (
	github.com/chenjiandongx/ginprom v0.0.0-20210617023641-6c809602c38a
	github.com/gin-contrib/static v0.0.1
	github.com/gin-gonic/autotls v0.0.5
	github.com/gin-gonic/gin v1.8.1
	github.com/knadh/koanf v1.4.3
	github.com/prometheus/client_golang v1.13.0
	go.uber.org/zap v1.23.0
	golang.org/x/crypto v0.0.0-20220829220503-c86fa9a7ed90
)

require (
	github.com/beorn7/perks v1.0.1 // indirect
	github.com/cespare/xxhash/v2 v2.1.2 // indirect
	github.com/fsnotify/fsnotify v1.4.9 // indirect
	github.com/gin-contrib/sse v0.1.0 // indirect
	github.com/go-playground/locales v0.14.0 // indirect
	github.com/go-playground/universal-translator v0.18.0 // indirect
	github.com/go-playground/validator/v10 v10.10.0 // indirect
	github.com/goccy/go-json v0.9.7 // indirect
	github.com/golang/protobuf v1.5.2 // indirect
	github.com/json-iterator/go v1.1.12 // indirect
	github.com/leodido/go-urn v1.2.1 // indirect
	github.com/mattn/go-isatty v0.0.14 // indirect
	github.com/matttproud/golang_protobuf_extensions v1.0.1 // indirect
	github.com/mitchellh/copystructure v1.2.0 // indirect
	github.com/mitchellh/mapstructure v1.5.0 // indirect
	github.com/mitchellh/reflectwalk v1.0.2 // indirect
	github.com/modern-go/concurrent v0.0.0-20180306012644-bacd9c7ef1dd // indirect
	github.com/modern-go/reflect2 v1.0.2 // indirect
	github.com/pelletier/go-toml v1.7.0 // indirect
	github.com/pelletier/go-toml/v2 v2.0.1 // indirect
	github.com/prometheus/client_model v0.2.0 // indirect
	github.com/prometheus/common v0.37.0 // indirect
	github.com/prometheus/procfs v0.8.0 // indirect
	github.com/ugorji/go/codec v1.2.7 // indirect
	go.uber.org/atomic v1.7.0 // indirect
	go.uber.org/multierr v1.6.0 // indirect
	golang.org/x/net v0.0.0-20220826154423-83b083e8dc8b // indirect
	golang.org/x/sync v0.0.0-20220819030929-7fc1605a5dde // indirect
	golang.org/x/sys v0.0.0-20220728004956-3c1f35247d10 // indirect
	golang.org/x/text v0.3.7 // indirect
	google.golang.org/protobuf v1.28.1 // indirect
	gopkg.in/yaml.v2 v2.4.0 // indirect
	gopkg.in/yaml.v3 v3.0.1 // indirect
)
